[
{"id":"12146","date":"2021-09-01 12:33:46","campaign_email":"nystage@gmail.com","track_uid":"53kxMYtDVK9hij19iciSWx","campaign_type":"Premium","payment_status":"Free","payment_status_date":"2021-09-01 12:33:46","tags":"[\"general\"]","to_whoom":"NULL","track_name":"I Can’t Wait to See You","artist_name":"NULL","album_id":"NULL","start_campaign_date":"2021-09-01","end_campaign_date":"NULL","status":"process","send_boost":"1","is_boosted":"NULL","txn_id":"NULL","referred_by":"NULL","amount":"NULL","notification_checks":"[]","success":"NULL","artist_facebook_handle":"https://facebook.com/stonecrossedmusical","artist_instagram_handle":"https://instagram.com/stonecrossedmusical","artist_twitter_handle":"https://twitter.com/stonecrossed","monthly_listeners":"NULL","discovered_on_playlists":"[]","digital_asset_url":"NULL"}
,
{"id":"12150","date":"2021-09-01 12:39:00","campaign_email":"eslyjuarezxv@gmail.com","track_uid":"2vlURtXWJG2CFWY8laaS5N","campaign_type":"Premium","payment_status":"Free","payment_status_date":"2021-09-01 12:39:00","tags":"[\"general\"]","to_whoom":"NULL","track_name":"Nobody Can Stop Me","artist_name":"NULL","album_id":"NULL","start_campaign_date":"2021-09-01","end_campaign_date":"NULL","status":"process","send_boost":"1","is_boosted":"NULL","txn_id":"NULL","referred_by":"NULL","amount":"NULL","notification_checks":"[]","success":"NULL","artist_facebook_handle":"https://facebook.com/eslyjuarezxv/","artist_instagram_handle":"https://instagram.com/Eslyjuarezxv","artist_twitter_handle":"https://twitter.com/Eslyjuarez","monthly_listeners":"NULL","discovered_on_playlists":"[]","digital_asset_url":"NULL"},
{"id":"12178","date":"2021-09-02 12:06:14","campaign_email":"alexalaine95@gmail.com","track_uid":"29NMwoxbU9dBQR13Zt8LCR","campaign_type":"Premium","payment_status":"Free","payment_status_date":"2021-09-02 12:06:14","tags":"[\"general\"]","to_whoom":"NULL","track_name":"euphoria","artist_name":"NULL","album_id":"NULL","start_campaign_date":"2021-09-02","end_campaign_date":"NULL","status":"process","send_boost":"1","is_boosted":"NULL","txn_id":"NULL","referred_by":"NULL","amount":"NULL","notification_checks":"[]","success":"NULL","artist_facebook_handle":"https://instagram.com/alexalainem","artist_instagram_handle":"","artist_twitter_handle":"","monthly_listeners":"NULL","discovered_on_playlists":"[]","digital_asset_url":"NULL"},
{"id":"12241","date":"2021-09-03 23:22:39","campaign_email":"elacson@gmail.com","track_uid":"2yEiLIfGM8B25ME8rohOZC","campaign_type":"Premium","payment_status":"Free","payment_status_date":"2021-09-03 23:22:39","tags":"[\"general\"]","to_whoom":"NULL","track_name":"That Fleeting Joy You Bring","artist_name":"NULL","album_id":"NULL","start_campaign_date":"2021-09-03","end_campaign_date":"NULL","status":"process","send_boost":"1","is_boosted":"NULL","txn_id":"NULL","referred_by":"NULL","amount":"NULL","notification_checks":"[]","success":"NULL","artist_facebook_handle":"https://instagram.com/badwolfbeats/","artist_instagram_handle":"","artist_twitter_handle":"","monthly_listeners":"NULL","discovered_on_playlists":"[]","digital_asset_url":"NULL"},
{"id":"12245","date":"2021-09-03 23:25:16","campaign_email":"eslyjuarezxv@gmail.com","track_uid":"1stMiAtdhwZcsrCZ3pxcdY","campaign_type":"Premium","payment_status":"Free","payment_status_date":"2021-09-03 23:25:16","tags":"[\"general\"]","to_whoom":"NULL","track_name":"Just Smile","artist_name":"NULL","album_id":"NULL","start_campaign_date":"2021-09-03","end_campaign_date":"NULL","status":"process","send_boost":"1","is_boosted":"NULL","txn_id":"NULL","referred_by":"NULL","amount":"NULL","notification_checks":"[]","success":"NULL","artist_facebook_handle":"https://facebook.com/eslyjuarezxv/","artist_instagram_handle":"https://instagram.com/Eslyjuarezxv","artist_twitter_handle":"https://twitter.com/Eslyjuarez","monthly_listeners":"NULL","discovered_on_playlists":"[]","digital_asset_url":"NULL"},
{"id":"12246","date":"2021-09-03 23:25:33","campaign_email":"eslyjuarezxv@gmail.com","track_uid":"1qImFSC1qZCcDDg50bseqM","campaign_type":"Premium","payment_status":"Free","payment_status_date":"2021-09-03 23:25:33","tags":"[\"general\"]","to_whoom":"NULL","track_name":"I.N M.Y","artist_name":"NULL","album_id":"NULL","start_campaign_date":"2021-09-03","end_campaign_date":"NULL","status":"process","send_boost":"1","is_boosted":"NULL","txn_id":"NULL","referred_by":"NULL","amount":"NULL","notification_checks":"[]","success":"NULL","artist_facebook_handle":"https://facebook.com/eslyjuarezxv/","artist_instagram_handle":"https://instagram.com/Eslyjuarezxv","artist_twitter_handle":"https://twitter.com/Eslyjuarez","monthly_listeners":"NULL","discovered_on_playlists":"[]","digital_asset_url":"NULL"},
{"id":"12287","date":"2021-09-05 16:07:20","campaign_email":"hansiengwenya16@gmail.com","track_uid":"1GUfIxsBfiXZJEZr8r4bjz","campaign_type":"Premium","payment_status":"Free","payment_status_date":"2021-09-05 16:07:20","tags":"[\"general\"]","to_whoom":"NULL","track_name":"ikigai, mire.","artist_name":"NULL","album_id":"NULL","start_campaign_date":"2021-09-05","end_campaign_date":"NULL","status":"process","send_boost":"1","is_boosted":"NULL","txn_id":"NULL","referred_by":"NULL","amount":"NULL","notification_checks":"[]","success":"NULL","artist_facebook_handle":"https://instagram.com/realmirersa/?hl=en","artist_instagram_handle":"https://twitter.com/MaGyverMIRE","artist_twitter_handle":"","monthly_listeners":"NULL","discovered_on_playlists":"[]","digital_asset_url":"NULL"},
{"id":"12288","date":"2021-09-05 16:07:50","campaign_email":"ahmad.mccown@yahoo.com","track_uid":"2B2ea82vIomAS9VQTHiU9q","campaign_type":"Premium","payment_status":"Free","payment_status_date":"2021-09-05 16:07:50","tags":"[\"general\"]","to_whoom":"NULL","track_name":"My Destination","artist_name":"NULL","album_id":"NULL","start_campaign_date":"2021-09-05","end_campaign_date":"NULL","status":"process","send_boost":"1","is_boosted":"NULL","txn_id":"NULL","referred_by":"NULL","amount":"NULL","notification_checks":"[]","success":"NULL","artist_facebook_handle":"https://facebook.com/amccown90","artist_instagram_handle":"https://instagram.com/ahmad_mccown90","artist_twitter_handle":"","monthly_listeners":"NULL","discovered_on_playlists":"[]","digital_asset_url":"NULL"},
{"id":"12294","date":"2021-09-05 16:26:28","campaign_email":"james@independentmusicpromotions.com","track_uid":"7t8qxqNQtKVoteuSBaBMtg","campaign_type":"Premium","payment_status":"Free","payment_status_date":"2021-09-05 16:26:28","tags":"[\"general\"]","to_whoom":"NULL","track_name":"Special","artist_name":"NULL","album_id":"NULL","start_campaign_date":"2021-09-05","end_campaign_date":"NULL","status":"process","send_boost":"1","is_boosted":"NULL","txn_id":"NULL","referred_by":"NULL","amount":"NULL","notification_checks":"[]","success":"NULL","artist_facebook_handle":"https://facebook.com/JMorisATC","artist_instagram_handle":"https://instagram.com/jmoris","artist_twitter_handle":"https://twitter.com/J_Moris","monthly_listeners":"NULL","discovered_on_playlists":"[]","digital_asset_url":"NULL"},
{"id":"12295","date":"2021-09-05 16:26:50","campaign_email":"james@independentmusicpromotions.com","track_uid":"5VkhzmgJXqSKPIKB1wby6Q","campaign_type":"Premium","payment_status":"Free","payment_status_date":"2021-09-05 16:26:50","tags":"[\"general\"]","to_whoom":"NULL","track_name":"Reawakened 2020","artist_name":"NULL","album_id":"NULL","start_campaign_date":"2021-09-05","end_campaign_date":"NULL","status":"process","send_boost":"1","is_boosted":"NULL","txn_id":"NULL","referred_by":"NULL","amount":"NULL","notification_checks":"[]","success":"NULL","artist_facebook_handle":"https://facebook.com/patrickames2","artist_instagram_handle":"https://instagram.com/www.patrickames.com","artist_twitter_handle":"https://twitter.com/patrickames","monthly_listeners":"NULL","discovered_on_playlists":"[]","digital_asset_url":"NULL"},
{"id":"12297","date":"2021-09-05 16:27:36","campaign_email":"james@independentmusicpromotions.com","track_uid":"6k8NU4xFaZouzt4rUnxZU2","campaign_type":"Premium","payment_status":"Free","payment_status_date":"2021-09-05 16:27:36","tags":"[\"general\"]","to_whoom":"NULL","track_name":"All About Now","artist_name":"NULL","album_id":"NULL","start_campaign_date":"2021-09-05","end_campaign_date":"NULL","status":"process","send_boost":"1","is_boosted":"NULL","txn_id":"NULL","referred_by":"NULL","amount":"NULL","notification_checks":"[]","success":"NULL","artist_facebook_handle":"NULL","artist_instagram_handle":"NULL","artist_twitter_handle":"NULL","monthly_listeners":"NULL","discovered_on_playlists":"[]","digital_asset_url":"NULL"},
{"id":"12346","date":"2021-09-08 09:13:18","campaign_email":"eslyjuarezxv@gmail.com","track_uid":"1nAUdrXC4ftdWtBZWqCDwB","campaign_type":"Premium","payment_status":"Free","payment_status_date":"2021-09-08 09:13:18","tags":"[\"general\"]","to_whoom":"NULL","track_name":"Dazed Awake","artist_name":"NULL","album_id":"NULL","start_campaign_date":"2021-09-08","end_campaign_date":"NULL","status":"process","send_boost":"1","is_boosted":"NULL","txn_id":"NULL","referred_by":"NULL","amount":"NULL","notification_checks":"[]","success":"NULL","artist_facebook_handle":"https://facebook.com/eslyjuarezxv/","artist_instagram_handle":"https://instagram.com/Eslyjuarezxv","artist_twitter_handle":"https://twitter.com/Eslyjuarez","monthly_listeners":"NULL","discovered_on_playlists":"[]","digital_asset_url":"NULL"},
{"id":"12351","date":"2021-09-08 09:15:27","campaign_email":"james@independentmusicpromotions.com","track_uid":"4nE0FpoOZ5CVdWPGTuEeEp","campaign_type":"Premium","payment_status":"Free","payment_status_date":"2021-09-08 09:15:27","tags":"[\"general\"]","to_whoom":"NULL","track_name":"Highroad, No. 6","artist_name":"NULL","album_id":"NULL","start_campaign_date":"2021-09-08","end_campaign_date":"NULL","status":"process","send_boost":"1","is_boosted":"NULL","txn_id":"NULL","referred_by":"NULL","amount":"NULL","notification_checks":"[]","success":"NULL","artist_facebook_handle":"https://facebook.com/Shawna-Virago-148321001860564/","artist_instagram_handle":"https://instagram.com/shawnavirago/?hl=en","artist_twitter_handle":"https://twitter.com/ShawnaVirago","monthly_listeners":"NULL","discovered_on_playlists":"[]","digital_asset_url":"NULL"},
{"id":"12352","date":"2021-09-08 09:15:49","campaign_email":"james@independentmusicpromotions.com","track_uid":"0lawHbqYsJiCYa2ouW4RbF","campaign_type":"Premium","payment_status":"Free","payment_status_date":"2021-09-08 09:15:49","tags":"[\"general\"]","to_whoom":"NULL","track_name":"I'm a Ghost","artist_name":"NULL","album_id":"NULL","start_campaign_date":"2021-09-08","end_campaign_date":"NULL","status":"process","send_boost":"1","is_boosted":"NULL","txn_id":"NULL","referred_by":"NULL","amount":"NULL","notification_checks":"[]","success":"NULL","artist_facebook_handle":"NULL","artist_instagram_handle":"NULL","artist_twitter_handle":"NULL","monthly_listeners":"NULL","discovered_on_playlists":"[]","digital_asset_url":"NULL"},
{"id":"12416","date":"2021-09-11 11:24:25","campaign_email":"tagmantf@gmail.com","track_uid":"0vfgIr560hTZgyX6aww57h","campaign_type":"Premium","payment_status":"Free","payment_status_date":"2021-09-11 11:24:25","tags":"[\"general\"]","to_whoom":"NULL","track_name":"i don't wanna be sad anymore","artist_name":"NULL","album_id":"NULL","start_campaign_date":"2021-09-11","end_campaign_date":"NULL","status":"process","send_boost":"1","is_boosted":"NULL","txn_id":"NULL","referred_by":"NULL","amount":"NULL","notification_checks":"[]","success":"NULL","artist_facebook_handle":"https://facebook.com/lucasdaviesmusic","artist_instagram_handle":"https://instagram.com/lucas_davies","artist_twitter_handle":"","monthly_listeners":"NULL","discovered_on_playlists":"[]","digital_asset_url":"NULL"},
{"id":"12502","date":"2021-09-14 13:30:55","campaign_email":"sunny.acousticmusic@gmail.com","track_uid":"3oWT6nCMIA03RdTQR4HLVC","campaign_type":"Premium","payment_status":"Free","payment_status_date":"2021-09-14 13:30:55","tags":"[\"general\"]","to_whoom":"NULL","track_name":"Only if I knew","artist_name":"NULL","album_id":"NULL","start_campaign_date":"2021-09-14","end_campaign_date":"NULL","status":"process","send_boost":"1","is_boosted":"NULL","txn_id":"NULL","referred_by":"NULL","amount":"NULL","notification_checks":"[]","success":"NULL","artist_facebook_handle":"https://facebook.com/Sunnyaccsmusic/","artist_instagram_handle":"https://instagram.com/sunny.accs_music/","artist_twitter_handle":"","monthly_listeners":"NULL","discovered_on_playlists":"[]","digital_asset_url":"NULL"},
{"id":"12589","date":"2021-09-17 18:39:26","campaign_email":"info@miu-music.de","track_uid":"357lZVEFqZW5DeSNoDO7gx","campaign_type":"Premium","payment_status":"Free","payment_status_date":"2021-09-17 18:39:26","tags":"[\"general\"]","to_whoom":"NULL","track_name":"The Reminder","artist_name":"NULL","album_id":"NULL","start_campaign_date":"2021-09-17","end_campaign_date":"NULL","status":"process","send_boost":"1","is_boosted":"NULL","txn_id":"NULL","referred_by":"NULL","amount":"NULL","notification_checks":"[]","success":"NULL","artist_facebook_handle":"https://facebook.com/listentomiu","artist_instagram_handle":"https://instagram.com/miuofficial","artist_twitter_handle":"https://de.wikipedia.org/wiki/Miu","monthly_listeners":"NULL","discovered_on_playlists":"[]","digital_asset_url":"NULL"},
{"id":"12605","date":"2021-09-18 12:18:24","campaign_email":"officialfiveoclockcharlie@gmail.com","track_uid":"0THrV6yApSmO3YC3omP2hx","campaign_type":"Premium","payment_status":"Free","payment_status_date":"2021-09-18 12:18:24","tags":"[\"general\"]","to_whoom":"NULL","track_name":"U Got Me Like","artist_name":"NULL","album_id":"NULL","start_campaign_date":"2021-09-18","end_campaign_date":"NULL","status":"process","send_boost":"1","is_boosted":"NULL","txn_id":"NULL","referred_by":"NULL","amount":"NULL","notification_checks":"[]","success":"NULL","artist_facebook_handle":"https://facebook.com/voclockcharlie","artist_instagram_handle":"https://instagram.com/fiveoclockcharlie","artist_twitter_handle":"https://twitter.com/voclockcharlie","monthly_listeners":"NULL","discovered_on_playlists":"[]","digital_asset_url":"NULL"},
{"id":"12607","date":"2021-09-18 12:19:08","campaign_email":"officialfiveoclockcharlie@gmail.com","track_uid":"0THrV6yApSmO3YC3omP2hx","campaign_type":"Premium","payment_status":"Free","payment_status_date":"2021-09-18 12:19:08","tags":"[\"general\"]","to_whoom":"NULL","track_name":"U Got Me Like","artist_name":"NULL","album_id":"NULL","start_campaign_date":"2021-09-18","end_campaign_date":"NULL","status":"process","send_boost":"1","is_boosted":"NULL","txn_id":"NULL","referred_by":"NULL","amount":"NULL","notification_checks":"[]","success":"NULL","artist_facebook_handle":"https://facebook.com/voclockcharlie","artist_instagram_handle":"https://instagram.com/fiveoclockcharlie","artist_twitter_handle":"https://twitter.com/voclockcharlie","monthly_listeners":"NULL","discovered_on_playlists":"[]","digital_asset_url":"NULL"},
{"id":"12619","date":"2021-09-18 12:24:26","campaign_email":"joker@alrbeatz.ch","track_uid":"6RnC5KSRXRETOH1dISqU5U","campaign_type":"Premium","payment_status":"Free","payment_status_date":"2021-09-18 12:24:26","tags":"[\"general\"]","to_whoom":"NULL","track_name":"Life's Best View","artist_name":"NULL","album_id":"NULL","start_campaign_date":"2021-09-18","end_campaign_date":"NULL","status":"process","send_boost":"1","is_boosted":"NULL","txn_id":"NULL","referred_by":"NULL","amount":"NULL","notification_checks":"[]","success":"NULL","artist_facebook_handle":"https://facebook.com/loris.al.raimondi","artist_instagram_handle":"https://instagram.com/loris_al_raimondi","artist_twitter_handle":"https://twitter.com/alr_fusionnotes","monthly_listeners":"NULL","discovered_on_playlists":"[]","digital_asset_url":"NULL"},
{"id":"12672","date":"2021-09-20 12:14:08","campaign_email":"office@rnp.at","track_uid":"4prJm7g8lEcPuyueC3ox9N","campaign_type":"Premium","payment_status":"Free","payment_status_date":"2021-09-20 12:14:08","tags":"[\"general\"]","to_whoom":"NULL","track_name":"Weekend Mode - Jay Carraway Remix","artist_name":"NULL","album_id":"NULL","start_campaign_date":"2021-09-20","end_campaign_date":"NULL","status":"process","send_boost":"1","is_boosted":"NULL","txn_id":"NULL","referred_by":"NULL","amount":"NULL","notification_checks":"[]","success":"NULL","artist_facebook_handle":"https://facebook.com/ginilampl/","artist_instagram_handle":"https://instagram.com/ginilampl/","artist_twitter_handle":"","monthly_listeners":"NULL","discovered_on_playlists":"[]","digital_asset_url":"NULL"},
{"id":"12674","date":"2021-09-20 12:14:47","campaign_email":"kontakt@freddenote.de","track_uid":"5HB8M7CIAQxtiOWARjwsnL","campaign_type":"Premium","payment_status":"Free","payment_status_date":"2021-09-20 12:14:47","tags":"[\"general\"]","to_whoom":"NULL","track_name":"Freddy Fredd","artist_name":"NULL","album_id":"NULL","start_campaign_date":"2021-09-20","end_campaign_date":"NULL","status":"process","send_boost":"1","is_boosted":"NULL","txn_id":"NULL","referred_by":"NULL","amount":"NULL","notification_checks":"[]","success":"NULL","artist_facebook_handle":"NULL","artist_instagram_handle":"NULL","artist_twitter_handle":"NULL","monthly_listeners":"NULL","discovered_on_playlists":"[]","digital_asset_url":"NULL"},
{"id":"12679","date":"2021-09-20 12:16:10","campaign_email":"supermario@zyx.de","track_uid":"4qfPZuUVvmQshnP15aNZb7","campaign_type":"Premium","payment_status":"Free","payment_status_date":"2021-09-20 12:16:10","tags":"[\"general\"]","to_whoom":"NULL","track_name":"Love Song (Klaas Remix)","artist_name":"NULL","album_id":"NULL","start_campaign_date":"2021-09-20","end_campaign_date":"NULL","status":"process","send_boost":"1","is_boosted":"NULL","txn_id":"NULL","referred_by":"NULL","amount":"NULL","notification_checks":"[]","success":"NULL","artist_facebook_handle":"NULL","artist_instagram_handle":"NULL","artist_twitter_handle":"NULL","monthly_listeners":"NULL","discovered_on_playlists":"[]","digital_asset_url":"NULL"},
{"id":"12761","date":"2021-09-23 16:35:57","campaign_email":"auraleagency@gmail.com","track_uid":"0byNmaqK5xOEkn4KBvlgFq","campaign_type":"Premium","payment_status":"Free","payment_status_date":"2021-09-23 16:35:57","tags":"[\"general\"]","to_whoom":"NULL","track_name":"Chèri M Kolè","artist_name":"NULL","album_id":"NULL","start_campaign_date":"2021-09-23","end_campaign_date":"NULL","status":"process","send_boost":"1","is_boosted":"NULL","txn_id":"NULL","referred_by":"NULL","amount":"NULL","notification_checks":"[]","success":"NULL","artist_facebook_handle":"https://facebook.com/NoldyMusicProduction/","artist_instagram_handle":"https://instagram.com/noldymusic/","artist_twitter_handle":"","monthly_listeners":"NULL","discovered_on_playlists":"[]","digital_asset_url":"NULL"}
,
{"id":"12769","date":"2021-09-23 17:06:52","campaign_email":"info@lucspada.com","track_uid":"370l7QAZUuz1NrUpgk6EIo","campaign_type":"Premium","payment_status":"Free","payment_status_date":"2021-09-23 17:06:52","tags":"[\"general\"]","to_whoom":"NULL","track_name":"Madness Is Your Candle","artist_name":"NULL","album_id":"NULL","start_campaign_date":"2021-09-23","end_campaign_date":"NULL","status":"process","send_boost":"1","is_boosted":"NULL","txn_id":"NULL","referred_by":"NULL","amount":"NULL","notification_checks":"[]","success":"NULL","artist_facebook_handle":"https://facebook.com/lucspadaofficial","artist_instagram_handle":"https://instagram.com/lucspada","artist_twitter_handle":"","monthly_listeners":"NULL","discovered_on_playlists":"[]","digital_asset_url":"NULL"},
{"id":"12853","date":"2021-09-26 12:37:00","campaign_email":"eldar@yellow-rose-records.eu","track_uid":"3r3R4fmguQjskoRaDz6VUW","campaign_type":"Premium","payment_status":"Free","payment_status_date":"2021-09-26 12:37:00","tags":"[\"general\"]","to_whoom":"NULL","track_name":"Lost","artist_name":"NULL","album_id":"NULL","start_campaign_date":"2021-09-26","end_campaign_date":"NULL","status":"process","send_boost":"1","is_boosted":"NULL","txn_id":"NULL","referred_by":"NULL","amount":"NULL","notification_checks":"[]","success":"NULL","artist_facebook_handle":"https://facebook.com/antonijapacek","artist_instagram_handle":"https://instagram.com/antonijapacek","artist_twitter_handle":"","monthly_listeners":"NULL","discovered_on_playlists":"[]","digital_asset_url":"NULL"},
{"id":"12882","date":"2021-09-27 09:09:40","campaign_email":"nettatzin@gmail.com","track_uid":"5RhFmJifQe83FpQ6ZFFTZ6","campaign_type":"Premium","payment_status":"Free","payment_status_date":"2021-09-27 09:09:40","tags":"[\"general\"]","to_whoom":"NULL","track_name":"not found","artist_name":"NULL","album_id":"NULL","start_campaign_date":"2021-09-27","end_campaign_date":"NULL","status":"freeze","send_boost":"1","is_boosted":"NULL","txn_id":"NULL","referred_by":"NULL","amount":"NULL","notification_checks":"[]","success":"NULL","artist_facebook_handle":"NULL","artist_instagram_handle":"NULL","artist_twitter_handle":"NULL","monthly_listeners":"NULL","discovered_on_playlists":"[]","digital_asset_url":"NULL"},
{"id":"12883","date":"2021-09-27 09:09:50","campaign_email":"nettatzin@gmail.com","track_uid":"5RhFmJifQe83FpQ6ZFFTZ7","campaign_type":"Premium","payment_status":"Free","payment_status_date":"2021-09-27 09:09:50","tags":"[\"general\"]","to_whoom":"NULL","track_name":"not found","artist_name":"NULL","album_id":"NULL","start_campaign_date":"2021-09-27","end_campaign_date":"NULL","status":"freeze","send_boost":"1","is_boosted":"NULL","txn_id":"NULL","referred_by":"NULL","amount":"NULL","notification_checks":"[]","success":"NULL","artist_facebook_handle":"NULL","artist_instagram_handle":"NULL","artist_twitter_handle":"NULL","monthly_listeners":"NULL","discovered_on_playlists":"[]","digital_asset_url":"NULL"},
{"id":"12884","date":"2021-09-27 09:10:00","campaign_email":"nettatzin@gmail.com","track_uid":"5RhFmJifQe83FpQ6ZFFTZ8","campaign_type":"Premium","payment_status":"Free","payment_status_date":"2021-09-27 09:10:00","tags":"[\"general\"]","to_whoom":"NULL","track_name":"not found","artist_name":"NULL","album_id":"NULL","start_campaign_date":"2021-09-27","end_campaign_date":"NULL","status":"freeze","send_boost":"1","is_boosted":"NULL","txn_id":"NULL","referred_by":"NULL","amount":"NULL","notification_checks":"[]","success":"NULL","artist_facebook_handle":"NULL","artist_instagram_handle":"NULL","artist_twitter_handle":"NULL","monthly_listeners":"NULL","discovered_on_playlists":"[]","digital_asset_url":"NULL"},
{"id":"12885","date":"2021-09-27 09:10:11","campaign_email":"nettatzin@gmail.com","track_uid":"5RhFmJifQe83FpQ6ZFFTZ9","campaign_type":"Premium","payment_status":"Free","payment_status_date":"2021-09-27 09:10:11","tags":"[\"general\"]","to_whoom":"NULL","track_name":"not found","artist_name":"NULL","album_id":"NULL","start_campaign_date":"2021-09-27","end_campaign_date":"NULL","status":"freeze","send_boost":"1","is_boosted":"NULL","txn_id":"NULL","referred_by":"NULL","amount":"NULL","notification_checks":"[]","success":"NULL","artist_facebook_handle":"NULL","artist_instagram_handle":"NULL","artist_twitter_handle":"NULL","monthly_listeners":"NULL","discovered_on_playlists":"[]","digital_asset_url":"NULL"},
{"id":"12890","date":"2021-09-27 09:21:22","campaign_email":"info@masteckirecords.com","track_uid":"6dbBnN1Tu9IFH55GRRosK3","campaign_type":"Premium","payment_status":"Free","payment_status_date":"2021-09-27 09:21:22","tags":"[\"general\"]","to_whoom":"NULL","track_name":"Dark Lanes","artist_name":"Mastecki Records","album_id":"NULL","start_campaign_date":"2021-09-27","end_campaign_date":"NULL","status":"process","send_boost":"1","is_boosted":"NULL","txn_id":"NULL","referred_by":"NULL","amount":"NULL","notification_checks":"[]","success":"NULL","artist_facebook_handle":"https://instagram.com/mastecki_records","artist_instagram_handle":"https://twitter.com/MMastecki","artist_twitter_handle":"","monthly_listeners":"NULL","discovered_on_playlists":"[]","digital_asset_url":"NULL"},
{"id":"12988","date":"2021-09-30 11:26:38","campaign_email":"info@steeplejack.de","track_uid":"7go0Z5JzvrLnOMBTefo5eF","campaign_type":"Premium","payment_status":"Free","payment_status_date":"2021-09-30 11:26:38","tags":"[\"general\"]","to_whoom":"NULL","track_name":"Quatre mots","artist_name":"NULL","album_id":"NULL","start_campaign_date":"2021-09-30","end_campaign_date":"NULL","status":"process","send_boost":"1","is_boosted":"NULL","txn_id":"NULL","referred_by":"NULL","amount":"NULL","notification_checks":"[]","success":"NULL","artist_facebook_handle":"https://facebook.com/rosierband","artist_instagram_handle":"https://instagram.com/___rosier___/","artist_twitter_handle":"https://twitter.com/rosierband","monthly_listeners":"NULL","discovered_on_playlists":"[]","digital_asset_url":"NULL"},
{"id":"12991","date":"2021-09-30 12:07:00","campaign_email":"office@rnp.at","track_uid":"7qlII8u6hKbWjURGHYO7tS","campaign_type":"Premium","payment_status":"Free","payment_status_date":"2021-09-30 12:07:00","tags":"[\"general\"]","to_whoom":"NULL","track_name":"Growing Garden","artist_name":"NULL","album_id":"NULL","start_campaign_date":"2021-09-30","end_campaign_date":"NULL","status":"process","send_boost":"1","is_boosted":"NULL","txn_id":"NULL","referred_by":"NULL","amount":"NULL","notification_checks":"[]","success":"NULL","artist_facebook_handle":"NULL","artist_instagram_handle":"NULL","artist_twitter_handle":"NULL","monthly_listeners":"NULL","discovered_on_playlists":"[]","digital_asset_url":"NULL"},
{"id":"12992","date":"2021-09-30 12:07:15","campaign_email":"office@rnp.at","track_uid":"7tI2utsFpawGpWZQzCwKBT","campaign_type":"Premium","payment_status":"Free","payment_status_date":"2021-09-30 12:07:15","tags":"[\"general\"]","to_whoom":"NULL","track_name":"Barcelona","artist_name":"NULL","album_id":"NULL","start_campaign_date":"2021-09-30","end_campaign_date":"NULL","status":"process","send_boost":"1","is_boosted":"NULL","txn_id":"NULL","referred_by":"NULL","amount":"NULL","notification_checks":"[]","success":"NULL","artist_facebook_handle":"https://facebook.com/brofaction","artist_instagram_handle":"https://instagram.com/brofactionmusic","artist_twitter_handle":"https://de.wikipedia.org/wiki/Brofaction","monthly_listeners":"NULL","discovered_on_playlists":"[]","digital_asset_url":"NULL"},
{"id":"13000","date":"2021-09-30 12:36:08","campaign_email":"yourbandisavirus@gmail.com","track_uid":"0vgmzlBojrQ2COv5EmGa8x","campaign_type":"Premium","payment_status":"Free","payment_status_date":"2021-09-30 12:36:08","tags":"[\"general\"]","to_whoom":"NULL","track_name":"All Thoughts","artist_name":"NULL","album_id":"NULL","start_campaign_date":"2021-09-30","end_campaign_date":"NULL","status":"process","send_boost":"1","is_boosted":"NULL","txn_id":"NULL","referred_by":"NULL","amount":"NULL","notification_checks":"[]","success":"NULL","artist_facebook_handle":"https://facebook.com/1stbaserunnermusic","artist_instagram_handle":"https://instagram.com/1stbaserunner","artist_twitter_handle":"https://twitter.com/1stbaserunner","monthly_listeners":"NULL","discovered_on_playlists":"[]","digital_asset_url":"NULL"},
{"id":"13001","date":"2021-09-30 12:36:21","campaign_email":"yourbandisavirus@gmail.com","track_uid":"1fQuWo0IUqOYrv8ckkuXKM","campaign_type":"Premium","payment_status":"Free","payment_status_date":"2021-09-30 12:36:21","tags":"[\"general\"]","to_whoom":"NULL","track_name":"December 4: Papakata","artist_name":"NULL","album_id":"NULL","start_campaign_date":"2021-09-30","end_campaign_date":"NULL","status":"process","send_boost":"1","is_boosted":"NULL","txn_id":"NULL","referred_by":"NULL","amount":"NULL","notification_checks":"[]","success":"NULL","artist_facebook_handle":"https://instagram.com/elliotcole","artist_instagram_handle":"https://twitter.com/elliotcole","artist_twitter_handle":"","monthly_listeners":"NULL","discovered_on_playlists":"[]","digital_asset_url":"NULL"},
{"id":"13009","date":"2021-09-30 12:38:25","campaign_email":"yourbandisavirus@gmail.com","track_uid":"35gukQ8kaz98tum8UexRKF","campaign_type":"Premium","payment_status":"Free","payment_status_date":"2021-09-30 12:38:25","tags":"[\"general\"]","to_whoom":"NULL","track_name":"You Make Me Scream","artist_name":"NULL","album_id":"NULL","start_campaign_date":"2021-09-30","end_campaign_date":"NULL","status":"process","send_boost":"1","is_boosted":"NULL","txn_id":"NULL","referred_by":"NULL","amount":"NULL","notification_checks":"[]","success":"NULL","artist_facebook_handle":"https://facebook.com/patrickames2","artist_instagram_handle":"https://instagram.com/www.patrickames.com","artist_twitter_handle":"https://twitter.com/patrickames","monthly_listeners":"NULL","discovered_on_playlists":"[]","digital_asset_url":"NULL"}
]
