Method: Main Process Notification Method
Message: Process Ran Smoothly with no errors 
Modifications: Success Changed to true and result changed to true in given database: ID:: 94256  Notification Type: email: Notification Success:  1 
Log Date and Time: July 16 2021, 12:45:50pm
#####################################################################################################################
Method: Main Process Notification Method
Message: Process Ran Smoothly with no errors 
Modifications: Success Changed to true and result changed to true in given database: ID:: 94257  Notification Type: email: Notification Success:  1 
Log Date and Time: July 16 2021, 12:45:50pm
#####################################################################################################################
Method: Main Process Notification Method
Message: Process Ran Smoothly with no errors 
Modifications: Success Changed to true and result changed to true in given database: ID:: 94258  Notification Type: email: Notification Success:  1 
Log Date and Time: July 16 2021, 12:45:50pm
#####################################################################################################################
Method: Main Process Notification Method
Message: Process Ran Smoothly with no errors 
Modifications: Success Changed to true and result changed to true in given database: ID:: 94259  Notification Type: email: Notification Success:  1 
Log Date and Time: July 16 2021, 12:45:50pm
#####################################################################################################################
Method: Main Process Notification Method
Message: Process Ran Smoothly with no errors 
Modifications: Success Changed to true and result changed to true in given database: ID:: 94260  Notification Type: email: Notification Success:  1 
Log Date and Time: July 16 2021, 12:45:50pm
#####################################################################################################################
Method: Main Process Notification Method
Message: Process Ran Smoothly with no errors 
Modifications: Success Changed to true and result changed to true in given database: ID:: 94261  Notification Type: email: Notification Success:  1 
Log Date and Time: July 16 2021, 12:45:50pm
#####################################################################################################################
Method: Main Process Notification Method
Message: Process Ran Smoothly with no errors 
Modifications: Success Changed to true and result changed to true in given database: ID:: 94262  Notification Type: email: Notification Success:  1 
Log Date and Time: July 16 2021, 12:45:50pm
#####################################################################################################################
Method: Main Process Notification Method
Message: Process Ran Smoothly with no errors 
Modifications: Success Changed to true and result changed to true in given database: ID:: 94263  Notification Type: email: Notification Success:  1 
Log Date and Time: July 16 2021, 12:45:50pm
#####################################################################################################################
Method: Main Process Notification Method
Message: Process Ran Smoothly with no errors 
Modifications: Success Changed to true and result changed to true in given database: ID:: 94264  Notification Type: email: Notification Success:  1 
Log Date and Time: July 16 2021, 12:45:50pm
#####################################################################################################################
Method: Main Process Notification Method
Message: Process Ran Smoothly with no errors 
Modifications: Success Changed to true and result changed to true in given database: ID:: 94265  Notification Type: email: Notification Success:  1 
Log Date and Time: July 16 2021, 12:45:50pm
#####################################################################################################################
Method: Main Process Notification Method
Message: Process Ran Smoothly with no errors 
Modifications: Success Changed to true and result changed to true in given database: ID:: 94266  Notification Type: email: Notification Success:  1 
Log Date and Time: July 16 2021, 12:45:50pm
#####################################################################################################################
Method: Main Process Notification Method
Message: Process Ran Smoothly with no errors 
Modifications: Success Changed to true and result changed to true in given database: ID:: 94267  Notification Type: email: Notification Success:  1 
Log Date and Time: July 16 2021, 12:45:50pm
#####################################################################################################################
Method: Main Process Notification Method
Message: Process Ran Smoothly with no errors 
Modifications: Success Changed to true and result changed to true in given database: ID:: 94268  Notification Type: email: Notification Success:  1 
Log Date and Time: July 16 2021, 12:45:50pm
#####################################################################################################################
Method: Main Process Notification Method
Message: Process Ran Smoothly with no errors 
Modifications: Success Changed to true and result changed to true in given database: ID:: 94269  Notification Type: email: Notification Success:  1 
Log Date and Time: July 16 2021, 12:45:50pm
#####################################################################################################################
Method: Main Process Notification Method
Message: Process Ran Smoothly with no errors 
Modifications: Success Changed to true and result changed to true in given database: ID:: 94270  Notification Type: email: Notification Success:  1 
Log Date and Time: July 16 2021, 12:45:50pm
#####################################################################################################################
Method: Main Process Notification Method
Message: Process Ran Smoothly with no errors 
Modifications: Success Changed to true and result changed to true in given database: ID:: 94271  Notification Type: email: Notification Success:  1 
Log Date and Time: July 16 2021, 12:45:50pm
#####################################################################################################################
Method: Main Process Notification Method
Message: Process Ran Smoothly with no errors 
Modifications: Success Changed to true and result changed to true in given database: ID:: 94272  Notification Type: email: Notification Success:  1 
Log Date and Time: July 16 2021, 12:45:50pm
#####################################################################################################################
Method: Main Process Notification Method
Message: Process Ran Smoothly with no errors 
Modifications: Success Changed to true and result changed to true in given database: ID:: 94273  Notification Type: email: Notification Success:  1 
Log Date and Time: July 16 2021, 12:45:50pm
#####################################################################################################################
Method: Main Process Notification Method
Message: Process Ran Smoothly with no errors 
Modifications: Success Changed to true and result changed to true in given database: ID:: 94274  Notification Type: email: Notification Success:  1 
Log Date and Time: July 18 2021, 6:01:02am
#####################################################################################################################
Method: Main Process Notification Method
Message: Process Ran Smoothly with no errors 
Modifications: Success Changed to true and result changed to true in given database: ID:: 94275  Notification Type: email: Notification Success:  1 
Log Date and Time: July 18 2021, 6:01:02am
#####################################################################################################################
Method: Main Process Notification Method
Message: Process Ran Smoothly with no errors 
Modifications: Success Changed to true and result changed to true in given database: ID:: 94276  Notification Type: email: Notification Success:  1 
Log Date and Time: July 18 2021, 6:01:02am
#####################################################################################################################
Method: Main Process Notification Method
Message: Process Ran Smoothly with no errors 
Modifications: Success Changed to true and result changed to true in given database: ID:: 94277  Notification Type: email: Notification Success:  1 
Log Date and Time: July 18 2021, 6:01:02am
#####################################################################################################################
Method: Main Process Notification Method
Message: Process Ran Smoothly with no errors 
Modifications: Success Changed to true and result changed to true in given database: ID:: 94278  Notification Type: email: Notification Success:  1 
Log Date and Time: July 18 2021, 6:01:02am
#####################################################################################################################
Method: Main Process Notification Method
Message: Process Ran Smoothly with no errors 
Modifications: Success Changed to true and result changed to true in given database: ID:: 94279  Notification Type: email: Notification Success:  1 
Log Date and Time: July 18 2021, 6:01:02am
#####################################################################################################################
Method: Main Process Notification Method
Message: Process Ran Smoothly with no errors 
Modifications: Success Changed to true and result changed to true in given database: ID:: 94280  Notification Type: email: Notification Success:  1 
Log Date and Time: July 18 2021, 6:01:02am
#####################################################################################################################
Method: Main Process Notification Method
Message: Process Ran Smoothly with no errors 
Modifications: Success Changed to true and result changed to true in given database: ID:: 94281  Notification Type: email: Notification Success:  1 
Log Date and Time: July 18 2021, 6:01:02am
#####################################################################################################################
Method: Main Process Notification Method
Message: Process Ran Smoothly with no errors 
Modifications: Success Changed to true and result changed to true in given database: ID:: 94282  Notification Type: email: Notification Success:  1 
Log Date and Time: July 18 2021, 6:01:02am
#####################################################################################################################
Method: Main Process Notification Method
Message: Process Ran Smoothly with no errors 
Modifications: Success Changed to true and result changed to true in given database: ID:: 94283  Notification Type: email: Notification Success:  1 
Log Date and Time: July 18 2021, 7:01:03am
#####################################################################################################################
Method: Main Process Notification Method
Message: Process Ran Smoothly with no errors 
Modifications: Success Changed to true and result changed to true in given database: ID:: 94284  Notification Type: email: Notification Success:  1 
Log Date and Time: July 18 2021, 7:01:03am
#####################################################################################################################
Method: Main Process Notification Method
Message: Process Ran Smoothly with no errors 
Modifications: Success Changed to true and result changed to true in given database: ID:: 94285  Notification Type: email: Notification Success:  1 
Log Date and Time: July 18 2021, 7:01:03am
#####################################################################################################################
Method: Main Process Notification Method
Message: Process Ran Smoothly with no errors 
Modifications: Success Changed to true and result changed to true in given database: ID:: 94286  Notification Type: email: Notification Success:  1 
Log Date and Time: July 18 2021, 7:01:03am
#####################################################################################################################
Method: Main Process Notification Method
Message: Process Ran Smoothly with no errors 
Modifications: Success Changed to true and result changed to true in given database: ID:: 94287  Notification Type: email: Notification Success:  1 
Log Date and Time: July 18 2021, 9:05:03am
#####################################################################################################################
Method: Main Process Notification Method
Message: Process Ran Smoothly with no errors 
Modifications: Success Changed to true and result changed to true in given database: ID:: 94288  Notification Type: email: Notification Success:  1 
Log Date and Time: July 18 2021, 9:05:03am
#####################################################################################################################
Method: Main Process Notification Method
Message: Process Ran Smoothly with no errors 
Modifications: Success Changed to true and result changed to true in given database: ID:: 94289  Notification Type: email: Notification Success:  1 
Log Date and Time: July 18 2021, 9:05:03am
#####################################################################################################################
Method: Main Process Notification Method
Message: Process Ran Smoothly with no errors 
Modifications: Success Changed to true and result changed to true in given database: ID:: 94290  Notification Type: email: Notification Success:  1 
Log Date and Time: July 18 2021, 9:05:03am
#####################################################################################################################
Method: Main Process Notification Method
Message: Process Ran Smoothly with no errors 
Modifications: Success Changed to true and result changed to true in given database: ID:: 94291  Notification Type: email: Notification Success:  1 
Log Date and Time: July 18 2021, 9:05:03am
#####################################################################################################################
Method: Main Process Notification Method
Message: Process Ran Smoothly with no errors 
Modifications: Success Changed to true and result changed to true in given database: ID:: 94292  Notification Type: email: Notification Success:  1 
Log Date and Time: July 18 2021, 9:05:03am
#####################################################################################################################
Method: Main Process Notification Method
Message: Process Ran Smoothly with no errors 
Modifications: Success Changed to true and result changed to true in given database: ID:: 94293  Notification Type: email: Notification Success:  1 
Log Date and Time: July 18 2021, 9:05:04am
#####################################################################################################################
Method: Main Process Notification Method
Message: Process Ran Smoothly with no errors 
Modifications: Success Changed to true and result changed to true in given database: ID:: 94294  Notification Type: email: Notification Success:  1 
Log Date and Time: July 18 2021, 9:13:01am
#####################################################################################################################
Method: Main Process Notification Method
Message: Process Ran Smoothly with no errors 
Modifications: Success Changed to true and result changed to true in given database: ID:: 94295  Notification Type: email: Notification Success:  1 
Log Date and Time: July 18 2021, 9:13:02am
#####################################################################################################################
Method: Main Process Notification Method
Message: Process Ran Smoothly with no errors 
Modifications: Success Changed to true and result changed to true in given database: ID:: 94296  Notification Type: email: Notification Success:  1 
Log Date and Time: July 18 2021, 9:14:03am
#####################################################################################################################
Method: Main Process Notification Method
Message: Process Ran Smoothly with no errors 
Modifications: Success Changed to true and result changed to true in given database: ID:: 94297  Notification Type: email: Notification Success:  1 
Log Date and Time: July 18 2021, 9:20:03am
#####################################################################################################################
Method: Main Process Notification Method
Message: Process Ran Smoothly with no errors 
Modifications: Success Changed to true and result changed to true in given database: ID:: 94298  Notification Type: email: Notification Success:  1 
Log Date and Time: July 18 2021, 9:21:02am
#####################################################################################################################
Method: Main Process Notification Method
Message: Process Ran Smoothly with no errors 
Modifications: Success Changed to true and result changed to true in given database: ID:: 94299  Notification Type: email: Notification Success:  1 
Log Date and Time: July 18 2021, 9:21:02am
#####################################################################################################################
Method: Main Process Notification Method
Message: Process Ran Smoothly with no errors 
Modifications: Success Changed to true and result changed to true in given database: ID:: 94300  Notification Type: email: Notification Success:  1 
Log Date and Time: July 18 2021, 9:21:03am
#####################################################################################################################
Method: Main Process Notification Method
Message: Process Ran Smoothly with no errors 
Modifications: Success Changed to true and result changed to true in given database: ID:: 94301  Notification Type: email: Notification Success:  1 
Log Date and Time: July 18 2021, 9:21:03am
#####################################################################################################################
Method: Main Process Notification Method
Message: Process Ran Smoothly with no errors 
Modifications: Success Changed to true and result changed to true in given database: ID:: 94302  Notification Type: email: Notification Success:  1 
Log Date and Time: July 18 2021, 9:23:03am
#####################################################################################################################
Method: Main Process Notification Method
Message: Process Ran Smoothly with no errors 
Modifications: Success Changed to true and result changed to true in given database: ID:: 94303  Notification Type: email: Notification Success:  1 
Log Date and Time: July 18 2021, 9:23:03am
#####################################################################################################################
Method: Main Process Notification Method
Message: Process Ran Smoothly with no errors 
Modifications: Success Changed to true and result changed to true in given database: ID:: 94304  Notification Type: email: Notification Success:  1 
Log Date and Time: July 18 2021, 9:23:03am
#####################################################################################################################
Method: Main Process Notification Method
Message: Process Ran Smoothly with no errors 
Modifications: Success Changed to true and result changed to true in given database: ID:: 94305  Notification Type: email: Notification Success:  1 
Log Date and Time: July 19 2021, 2:04:02pm
#####################################################################################################################
Method: Main Process Notification Method
Message: Process Ran Smoothly with no errors 
Modifications: Success Changed to true and result changed to true in given database: ID:: 94306  Notification Type: email: Notification Success:  1 
Log Date and Time: July 19 2021, 3:26:02pm
#####################################################################################################################
Method: Main Process Notification Method
Message: Process Ran Smoothly with no errors 
Modifications: Success Changed to true and result changed to true in given database: ID:: 94307  Notification Type: email: Notification Success:  1 
Log Date and Time: July 19 2021, 3:31:02pm
#####################################################################################################################
Method: Main Process Notification Method
Message: Process Ran Smoothly with no errors 
Modifications: Success Changed to true and result changed to true in given database: ID:: 94308  Notification Type: email: Notification Success:  1 
Log Date and Time: July 19 2021, 3:31:02pm
#####################################################################################################################
Method: Main Process Notification Method
Message: Process Ran Smoothly with no errors 
Modifications: Success Changed to true and result changed to true in given database: ID:: 94309  Notification Type: email: Notification Success:  1 
Log Date and Time: July 19 2021, 3:31:02pm
#####################################################################################################################
Method: Main Process Notification Method
Message: Process Ran Smoothly with no errors 
Modifications: Success Changed to true and result changed to true in given database: ID:: 94310  Notification Type: email: Notification Success:  1 
Log Date and Time: July 19 2021, 3:38:02pm
#####################################################################################################################
Method: Main Process Notification Method
Message: Process Ran Smoothly with no errors 
Modifications: Success Changed to true and result changed to true in given database: ID:: 94311  Notification Type: email: Notification Success:  1 
Log Date and Time: July 19 2021, 3:40:03pm
#####################################################################################################################
Method: Main Process Notification Method
Message: Process Ran Smoothly with no errors 
Modifications: Success Changed to true and result changed to true in given database: ID:: 94312  Notification Type: email: Notification Success:  1 
Log Date and Time: July 19 2021, 4:51:03pm
#####################################################################################################################
Method: Main Process Notification Method
Message: Process Ran Smoothly with no errors 
Modifications: Success Changed to true and result changed to true in given database: ID:: 94313  Notification Type: email: Notification Success:  1 
Log Date and Time: July 19 2021, 4:51:03pm
#####################################################################################################################
Method: Main Process Notification Method
Message: Process Ran Smoothly with no errors 
Modifications: Success Changed to true and result changed to true in given database: ID:: 94314  Notification Type: email: Notification Success:  1 
Log Date and Time: July 21 2021, 12:01:02am
#####################################################################################################################
Method: Main Process Notification Method
Message: Process Ran Smoothly with no errors 
Modifications: Success Changed to true and result changed to true in given database: ID:: 94315  Notification Type: email: Notification Success:  1 
Log Date and Time: July 21 2021, 12:01:02am
#####################################################################################################################
Method: Main Process Notification Method
Message: Process Ran Smoothly with no errors 
Modifications: Success Changed to true and result changed to true in given database: ID:: 94316  Notification Type: email: Notification Success:  1 
Log Date and Time: July 21 2021, 12:01:02am
#####################################################################################################################
Method: Main Process Notification Method
Message: Process Ran Smoothly with no errors 
Modifications: Success Changed to true and result changed to true in given database: ID:: 94317  Notification Type: email: Notification Success:  1 
Log Date and Time: July 21 2021, 12:01:02am
#####################################################################################################################
Method: Main Process Notification Method
Message: Process Ran Smoothly with no errors 
Modifications: Success Changed to true and result changed to true in given database: ID:: 94318  Notification Type: email: Notification Success:  1 
Log Date and Time: July 21 2021, 12:01:02am
#####################################################################################################################
Method: Main Process Notification Method
Message: Process Ran Smoothly with no errors 
Modifications: Success Changed to true and result changed to true in given database: ID:: 94319  Notification Type: email: Notification Success:  1 
Log Date and Time: July 21 2021, 12:01:02am
#####################################################################################################################
Method: Main Process Notification Method
Message: Process Ran Smoothly with no errors 
Modifications: Success Changed to true and result changed to true in given database: ID:: 94320  Notification Type: email: Notification Success:  1 
Log Date and Time: July 21 2021, 12:01:02am
#####################################################################################################################
Method: Main Process Notification Method
Message: Process Ran Smoothly with no errors 
Modifications: Success Changed to true and result changed to true in given database: ID:: 94321  Notification Type: email: Notification Success:  1 
Log Date and Time: July 21 2021, 12:01:02am
#####################################################################################################################
Method: Main Process Notification Method
Message: Process Ran Smoothly with no errors 
Modifications: Success Changed to true and result changed to true in given database: ID:: 94322  Notification Type: email: Notification Success:  1 
Log Date and Time: July 21 2021, 11:16:03am
#####################################################################################################################
Method: Main Process Notification Method
Message: Process Ran Smoothly with no errors 
Modifications: Success Changed to true and result changed to true in given database: ID:: 94323  Notification Type: email: Notification Success:  1 
Log Date and Time: July 21 2021, 11:23:02am
#####################################################################################################################
Method: Main Process Notification Method
Message: Process Ran Smoothly with no errors 
Modifications: Success Changed to true and result changed to true in given database: ID:: 94324  Notification Type: email: Notification Success:  1 
Log Date and Time: July 23 2021, 12:01:03am
#####################################################################################################################
Method: Main Process Notification Method
Message: Process Ran Smoothly with no errors 
Modifications: Success Changed to true and result changed to true in given database: ID:: 94325  Notification Type: email: Notification Success:  1 
Log Date and Time: July 23 2021, 12:01:03am
#####################################################################################################################
Method: Main Process Notification Method
Message: Process Ran Smoothly with no errors 
Modifications: Success Changed to true and result changed to true in given database: ID:: 94326  Notification Type: email: Notification Success:  1 
Log Date and Time: July 23 2021, 12:01:03am
#####################################################################################################################
Method: Main Process Notification Method
Message: Process Ran Smoothly with no errors 
Modifications: Success Changed to true and result changed to true in given database: ID:: 94327  Notification Type: email: Notification Success:  1 
Log Date and Time: July 23 2021, 12:01:03am
#####################################################################################################################
Method: Main Process Notification Method
Message: Process Ran Smoothly with no errors 
Modifications: Success Changed to true and result changed to true in given database: ID:: 94328  Notification Type: email: Notification Success:  1 
Log Date and Time: July 23 2021, 12:01:03am
#####################################################################################################################
Method: Main Process Notification Method
Message: Process Ran Smoothly with no errors 
Modifications: Success Changed to true and result changed to true in given database: ID:: 94329  Notification Type: email: Notification Success:  1 
Log Date and Time: July 23 2021, 12:01:03am
#####################################################################################################################
Method: Main Process Notification Method
Message: Process Ran Smoothly with no errors 
Modifications: Success Changed to true and result changed to true in given database: ID:: 94330  Notification Type: email: Notification Success:  1 
Log Date and Time: July 23 2021, 12:01:03am
#####################################################################################################################
Method: Main Process Notification Method
Message: Process Ran Smoothly with no errors 
Modifications: Success Changed to true and result changed to true in given database: ID:: 94331  Notification Type: email: Notification Success:  1 
Log Date and Time: July 23 2021, 12:01:03am
#####################################################################################################################
Method: Main Process Notification Method
Message: Process Ran Smoothly with no errors 
Modifications: Success Changed to true and result changed to true in given database: ID:: 94332  Notification Type: email: Notification Success:  1 
Log Date and Time: July 23 2021, 12:01:04am
#####################################################################################################################
Method: Main Process Notification Method
Message: Process Ran Smoothly with no errors 
Modifications: Success Changed to true and result changed to true in given database: ID:: 94333  Notification Type: email: Notification Success:  1 
Log Date and Time: July 23 2021, 12:01:04am
#####################################################################################################################
Method: Main Process Notification Method
Message: Process Ran Smoothly with no errors 
Modifications: Success Changed to true and result changed to true in given database: ID:: 94334  Notification Type: email: Notification Success:  1 
Log Date and Time: July 23 2021, 12:01:04am
#####################################################################################################################
Method: Main Process Notification Method
Message: Process Ran Smoothly with no errors 
Modifications: Success Changed to true and result changed to true in given database: ID:: 94335  Notification Type: email: Notification Success:  1 
Log Date and Time: July 23 2021, 12:01:04am
#####################################################################################################################
Method: Main Process Notification Method
Message: Process Ran Smoothly with no errors 
Modifications: Success Changed to true and result changed to true in given database: ID:: 94336  Notification Type: email: Notification Success:  1 
Log Date and Time: July 23 2021, 12:01:04am
#####################################################################################################################
Method: Main Process Notification Method
Message: Process Ran Smoothly with no errors 
Modifications: Success Changed to true and result changed to true in given database: ID:: 94337  Notification Type: email: Notification Success:  1 
Log Date and Time: July 23 2021, 12:01:04am
#####################################################################################################################
Method: Main Process Notification Method
Message: Process Ran Smoothly with no errors 
Modifications: Success Changed to true and result changed to true in given database: ID:: 94338  Notification Type: email: Notification Success:  1 
Log Date and Time: July 23 2021, 12:01:04am
#####################################################################################################################
Method: Main Process Notification Method
Message: Process Ran Smoothly with no errors 
Modifications: Success Changed to true and result changed to true in given database: ID:: 94339  Notification Type: email: Notification Success:  1 
Log Date and Time: July 23 2021, 12:01:04am
#####################################################################################################################
Method: Main Process Notification Method
Message: Process Ran Smoothly with no errors 
Modifications: Success Changed to true and result changed to true in given database: ID:: 94340  Notification Type: email: Notification Success:  1 
Log Date and Time: July 23 2021, 12:01:04am
#####################################################################################################################
Method: Main Process Notification Method
Message: Process Ran Smoothly with no errors 
Modifications: Success Changed to true and result changed to true in given database: ID:: 94341  Notification Type: email: Notification Success:  1 
Log Date and Time: July 23 2021, 12:01:04am
#####################################################################################################################
Method: Main Process Notification Method
Message: Process Ran Smoothly with no errors 
Modifications: Success Changed to true and result changed to true in given database: ID:: 94342  Notification Type: email: Notification Success:  1 
Log Date and Time: July 26 2021, 12:01:03am
#####################################################################################################################
Method: Main Process Notification Method
Message: Process Ran Smoothly with no errors 
Modifications: Success Changed to true and result changed to true in given database: ID:: 94343  Notification Type: email: Notification Success:  1 
Log Date and Time: July 26 2021, 12:01:03am
#####################################################################################################################
Method: Main Process Notification Method
Message: Process Ran Smoothly with no errors 
Modifications: Success Changed to true and result changed to true in given database: ID:: 94344  Notification Type: email: Notification Success:  1 
Log Date and Time: July 28 2021, 12:01:03am
#####################################################################################################################
Method: Main Process Notification Method
Message: Process Ran Smoothly with no errors 
Modifications: Success Changed to true and result changed to true in given database: ID:: 94345  Notification Type: email: Notification Success:  1 
Log Date and Time: July 28 2021, 12:01:03am
#####################################################################################################################
Method: Main Process Notification Method
Message: Process Ran Smoothly with no errors 
Modifications: Success Changed to true and result changed to true in given database: ID:: 94346  Notification Type: email: Notification Success:  1 
Log Date and Time: July 28 2021, 12:01:03am
#####################################################################################################################
Method: Main Process Notification Method
Message: Process Ran Smoothly with no errors 
Modifications: Success Changed to true and result changed to true in given database: ID:: 94347  Notification Type: email: Notification Success:  1 
Log Date and Time: July 28 2021, 12:01:03am
#####################################################################################################################
Method: Main Process Notification Method
Message: Process Ran Smoothly with no errors 
Modifications: Success Changed to true and result changed to true in given database: ID:: 94348  Notification Type: email: Notification Success:  1 
Log Date and Time: July 28 2021, 12:01:03am
#####################################################################################################################
Method: Main Process Notification Method
Message: Process Ran Smoothly with no errors 
Modifications: Success Changed to true and result changed to true in given database: ID:: 94349  Notification Type: email: Notification Success:  1 
Log Date and Time: July 28 2021, 12:01:03am
#####################################################################################################################
Method: Main Process Notification Method
Message: Process Ran Smoothly with no errors 
Modifications: Success Changed to true and result changed to true in given database: ID:: 94350  Notification Type: email: Notification Success:  1 
Log Date and Time: July 28 2021, 10:01:02am
#####################################################################################################################
Method: Main Process Notification Method
Message: Process Ran Smoothly with no errors 
Modifications: Success Changed to true and result changed to true in given database: ID:: 94351  Notification Type: email: Notification Success:  1 
Log Date and Time: July 28 2021, 10:01:03am
#####################################################################################################################
Method: Main Process Notification Method
Message: Process Ran Smoothly with no errors 
Modifications: Success Changed to true and result changed to true in given database: ID:: 94352  Notification Type: email: Notification Success:  1 
Log Date and Time: July 30 2021, 12:01:03am
#####################################################################################################################
Method: Main Process Notification Method
Message: Process Ran Smoothly with no errors 
Modifications: Success Changed to true and result changed to true in given database: ID:: 94353  Notification Type: email: Notification Success:  1 
Log Date and Time: July 30 2021, 12:01:03am
#####################################################################################################################
Method: Main Process Notification Method
Message: Process Ran Smoothly with no errors 
Modifications: Success Changed to true and result changed to true in given database: ID:: 94354  Notification Type: email: Notification Success:  1 
Log Date and Time: July 30 2021, 12:01:03am
#####################################################################################################################
Method: Main Process Notification Method
Message: Process Ran Smoothly with no errors 
Modifications: Success Changed to true and result changed to true in given database: ID:: 94355  Notification Type: email: Notification Success:  1 
Log Date and Time: July 30 2021, 12:01:03am
#####################################################################################################################
Method: Main Process Notification Method
Message: Process Ran Smoothly with no errors 
Modifications: Success Changed to true and result changed to true in given database: ID:: 94356  Notification Type: email: Notification Success:  1 
Log Date and Time: July 30 2021, 12:01:03am
#####################################################################################################################
Method: Main Process Notification Method
Message: Process Ran Smoothly with no errors 
Modifications: Success Changed to true and result changed to true in given database: ID:: 94357  Notification Type: email: Notification Success:  1 
Log Date and Time: July 30 2021, 12:01:03am
#####################################################################################################################
Method: Main Process Notification Method
Message: Process Ran Smoothly with no errors 
Modifications: Success Changed to true and result changed to true in given database: ID:: 94358  Notification Type: email: Notification Success:  1 
Log Date and Time: July 30 2021, 12:01:04am
#####################################################################################################################
Method: Main Process Notification Method
Message: Process Ran Smoothly with no errors 
Modifications: Success Changed to true and result changed to true in given database: ID:: 94359  Notification Type: email: Notification Success:  1 
Log Date and Time: July 30 2021, 12:01:04am
#####################################################################################################################
Method: Main Process Notification Method
Message: Process Ran Smoothly with no errors 
Modifications: Success Changed to true and result changed to true in given database: ID:: 94360  Notification Type: email: Notification Success:  1 
Log Date and Time: July 30 2021, 12:01:04am
#####################################################################################################################
Method: Main Process Notification Method
Message: Process Ran Smoothly with no errors 
Modifications: Success Changed to true and result changed to true in given database: ID:: 94361  Notification Type: email: Notification Success:  1 
Log Date and Time: July 30 2021, 12:01:04am
#####################################################################################################################
Method: Main Process Notification Method
Message: Process Ran Smoothly with no errors 
Modifications: Success Changed to true and result changed to true in given database: ID:: 94362  Notification Type: email: Notification Success:  1 
Log Date and Time: July 30 2021, 12:01:04am
#####################################################################################################################
Method: Main Process Notification Method
Message: Process Ran Smoothly with no errors 
Modifications: Success Changed to true and result changed to true in given database: ID:: 94363  Notification Type: email: Notification Success:  1 
Log Date and Time: July 30 2021, 12:01:04am
#####################################################################################################################
Method: Main Process Notification Method
Message: Process Ran Smoothly with no errors 
Modifications: Success Changed to true and result changed to true in given database: ID:: 94364  Notification Type: email: Notification Success:  1 
Log Date and Time: July 30 2021, 12:01:04am
#####################################################################################################################
Method: Main Process Notification Method
Message: Process Ran Smoothly with no errors 
Modifications: Success Changed to true and result changed to true in given database: ID:: 94365  Notification Type: email: Notification Success:  1 
Log Date and Time: July 30 2021, 12:01:04am
#####################################################################################################################
Method: Main Process Notification Method
Message: Process Ran Smoothly with no errors 
Modifications: Success Changed to true and result changed to true in given database: ID:: 94366  Notification Type: email: Notification Success:  1 
Log Date and Time: July 30 2021, 12:01:04am
#####################################################################################################################
Method: Main Process Notification Method
Message: Process Ran Smoothly with no errors 
Modifications: Success Changed to true and result changed to true in given database: ID:: 94367  Notification Type: email: Notification Success:  1 
Log Date and Time: July 30 2021, 12:01:04am
#####################################################################################################################
Method: Main Process Notification Method
Message: Process Ran Smoothly with no errors 
Modifications: Success Changed to true and result changed to true in given database: ID:: 94368  Notification Type: email: Notification Success:  1 
Log Date and Time: July 30 2021, 12:01:04am
#####################################################################################################################
Method: Main Process Notification Method
Message: Process Ran Smoothly with no errors 
Modifications: Success Changed to true and result changed to true in given database: ID:: 94369  Notification Type: email: Notification Success:  1 
Log Date and Time: July 30 2021, 12:01:04am
#####################################################################################################################
Method: Main Process Notification Method
Message: Process Ran Smoothly with no errors 
Modifications: Success Changed to true and result changed to true in given database: ID:: 94634  Notification Type: email: Notification Success:  1 
Log Date and Time: August 2 2021, 9:09:15am
#####################################################################################################################

Method: Main Process Notification Method
Message: Process Ran Smoothly with no errors 
Modifications: Success Changed to true and result changed to true in given database: ID:: 94635  Notification Type: email: Notification Success:  1 
Log Date and Time: August 2 2021, 9:12:09am
#####################################################################################################################

Method: Main Process Notification Method
Message: Process Ran Smoothly with no errors 
Modifications: Success Changed to true and result changed to true in given database: ID:: 94636  Notification Type: email: Notification Success:  1 
Log Date and Time: August 2 2021, 9:57:14am
#####################################################################################################################

Method: Main Process Notification Method
Message: Process Ran Smoothly with no errors 
Modifications: Success Changed to true and result changed to true in given database: ID:: 94637  Notification Type: email: Notification Success:  1 
Log Date and Time: August 2 2021, 10:00:28am
#####################################################################################################################

Method: Main Process Notification Method
Message: Process Ran Smoothly with no errors 
Modifications: Success Changed to true and result changed to true in given database: ID:: 94638  Notification Type: email: Notification Success:  1 
Log Date and Time: August 2 2021, 10:01:04am
#####################################################################################################################

Method: Main Process Notification Method
Message: Process Ran Smoothly with no errors 
Modifications: Success Changed to true and result changed to true in given database: ID:: 94639  Notification Type: email: Notification Success:  1 
Log Date and Time: August 2 2021, 10:03:09am
#####################################################################################################################

Method: Main Process Notification Method
Message: Process Ran Smoothly with no errors 
Modifications: Success Changed to true and result changed to true in given database: ID:: 94640  Notification Type: email: Notification Success:  1 
Log Date and Time: August 2 2021, 10:06:19am
#####################################################################################################################

Method: Main Process Notification Method
Message: Process Ran Smoothly with no errors 
Modifications: Success Changed to true and result changed to true in given database: ID:: 94641  Notification Type: email: Notification Success:  1 
Log Date and Time: August 2 2021, 10:09:15am
#####################################################################################################################

Method: Main Process Notification Method
Message: Process Ran Smoothly with no errors 
Modifications: Success Changed to true and result changed to true in given database: ID:: 94642  Notification Type: email: Notification Success:  1 
Log Date and Time: August 2 2021, 10:12:17am
#####################################################################################################################

Method: Main Process Notification Method
Message: Process Ran Smoothly with no errors 
Modifications: Success Changed to true and result changed to true in given database: ID:: 94643  Notification Type: email: Notification Success:  1 
Log Date and Time: August 2 2021, 10:15:11am
#####################################################################################################################

Method: Main Process Notification Method
Message: Process Ran Smoothly with no errors 
Modifications: Success Changed to true and result changed to true in given database: ID:: 94644  Notification Type: email: Notification Success:  1 
Log Date and Time: August 2 2021, 10:18:15am
#####################################################################################################################

Method: Main Process Notification Method
Message: Process Ran Smoothly with no errors 
Modifications: Success Changed to true and result changed to true in given database: ID:: 94645  Notification Type: email: Notification Success:  1 
Log Date and Time: August 2 2021, 10:21:05am
#####################################################################################################################

Method: Main Process Notification Method
Message: Process Ran Smoothly with no errors 
Modifications: Success Changed to true and result changed to true in given database: ID:: 94646  Notification Type: email: Notification Success:  1 
Log Date and Time: August 2 2021, 10:24:16am
#####################################################################################################################

Method: Main Process Notification Method
Message: Process Ran Smoothly with no errors 
Modifications: Success Changed to true and result changed to true in given database: ID:: 94647  Notification Type: email: Notification Success:  1 
Log Date and Time: August 2 2021, 10:36:15am
#####################################################################################################################

Method: Main Process Notification Method
Message: Process Ran Smoothly with no errors 
Modifications: Success Changed to true and result changed to true in given database: ID:: 94648  Notification Type: email: Notification Success:  1 
Log Date and Time: August 2 2021, 10:39:14am
#####################################################################################################################

Method: Main Process Notification Method
Message: Process Ran Smoothly with no errors 
Modifications: Success Changed to true and result changed to true in given database: ID:: 94649  Notification Type: email: Notification Success:  1 
Log Date and Time: August 2 2021, 10:42:16am
#####################################################################################################################

Method: Main Process Notification Method
Message: Process Ran Smoothly with no errors 
Modifications: Success Changed to true and result changed to true in given database: ID:: 94650  Notification Type: email: Notification Success:  1 
Log Date and Time: August 2 2021, 10:45:09am
#####################################################################################################################

Method: Main Process Notification Method
Message: Process Ran Smoothly with no errors 
Modifications: Success Changed to true and result changed to true in given database: ID:: 94651  Notification Type: email: Notification Success:  1 
Log Date and Time: August 2 2021, 11:18:13am
#####################################################################################################################

Method: Main Process Notification Method
Message: Process Ran Smoothly with no errors 
Modifications: Success Changed to true and result changed to true in given database: ID:: 94652  Notification Type: email: Notification Success:  1 
Log Date and Time: August 2 2021, 11:21:15am
#####################################################################################################################

Method: Main Process Notification Method
Message: Process Ran Smoothly with no errors 
Modifications: Success Changed to true and result changed to true in given database: ID:: 94653  Notification Type: email: Notification Success:  1 
Log Date and Time: August 2 2021, 11:24:10am
#####################################################################################################################

Method: Main Process Notification Method
Message: Process Ran Smoothly with no errors 
Modifications: Success Changed to true and result changed to true in given database: ID:: 94654  Notification Type: email: Notification Success:  1 
Log Date and Time: August 2 2021, 11:27:16am
#####################################################################################################################

Method: Main Process Notification Method
Message: Process Ran Smoothly with no errors 
Modifications: Success Changed to true and result changed to true in given database: ID:: 94655  Notification Type: email: Notification Success:  1 
Log Date and Time: August 2 2021, 11:30:10am
#####################################################################################################################

Method: Main Process Notification Method
Message: Process Ran Smoothly with no errors 
Modifications: Success Changed to true and result changed to true in given database: ID:: 94656  Notification Type: email: Notification Success:  1 
Log Date and Time: August 2 2021, 11:33:17am
#####################################################################################################################

Method: Main Process Notification Method
Message: Process Ran Smoothly with no errors 
Modifications: Success Changed to true and result changed to true in given database: ID:: 94657  Notification Type: email: Notification Success:  1 
Log Date and Time: August 2 2021, 11:36:03am
#####################################################################################################################

Method: Main Process Notification Method
Message: Process Ran Smoothly with no errors 
Modifications: Success Changed to true and result changed to true in given database: ID:: 94370  Notification Type: email: Notification Success:  1 
Log Date and Time: August 2 2021, 1:11:03pm
#####################################################################################################################

Method: Main Process Notification Method
Message: Process Ran Smoothly with no errors 
Modifications: Success Changed to true and result changed to true in given database: ID:: 94371  Notification Type: email: Notification Success:  1 
Log Date and Time: August 2 2021, 1:30:02pm
#####################################################################################################################

Method: Main Process Notification Method
Message: Process Ran Smoothly with no errors 
Modifications: Success Changed to true and result changed to true in given database: ID:: 94372  Notification Type: email: Notification Success:  1 
Log Date and Time: August 2 2021, 2:18:03pm
#####################################################################################################################

Method: Main Process Notification Method
Message: Process Ran Smoothly with no errors 
Modifications: Success Changed to true and result changed to true in given database: ID:: 94373  Notification Type: email: Notification Success:  1 
Log Date and Time: August 2 2021, 3:24:03pm
#####################################################################################################################

Method: Main Process Notification Method
Message: Process Ran Smoothly with no errors 
Modifications: Success Changed to true and result changed to true in given database: ID:: 94374  Notification Type: email: Notification Success:  1 
Log Date and Time: August 2 2021, 3:25:03pm
#####################################################################################################################

Method: Main Process Notification Method
Message: Process Ran Smoothly with no errors 
Modifications: Success Changed to true and result changed to true in given database: ID:: 94375  Notification Type: email: Notification Success:  1 
Log Date and Time: August 2 2021, 3:25:03pm
#####################################################################################################################

Method: Main Process Notification Method
Message: Process Ran Smoothly with no errors 
Modifications: Success Changed to true and result changed to true in given database: ID:: 94376  Notification Type: email: Notification Success:  1 
Log Date and Time: August 2 2021, 3:25:03pm
#####################################################################################################################

Method: Main Process Notification Method
Message: Process Ran Smoothly with no errors 
Modifications: Success Changed to true and result changed to true in given database: ID:: 94377  Notification Type: email: Notification Success:  1 
Log Date and Time: August 2 2021, 3:25:03pm
#####################################################################################################################

Method: Main Process Notification Method
Message: Process Ran Smoothly with no errors 
Modifications: Success Changed to true and result changed to true in given database: ID:: 94378  Notification Type: email: Notification Success:  1 
Log Date and Time: August 2 2021, 3:25:03pm
#####################################################################################################################

Method: Main Process Notification Method
Message: Process Ran Smoothly with no errors 
Modifications: Success Changed to true and result changed to true in given database: ID:: 94379  Notification Type: email: Notification Success:  1 
Log Date and Time: August 2 2021, 3:25:03pm
#####################################################################################################################

Method: Main Process Notification Method
Message: Process Ran Smoothly with no errors 
Modifications: Success Changed to true and result changed to true in given database: ID:: 94380  Notification Type: email: Notification Success:  1 
Log Date and Time: August 2 2021, 3:25:03pm
#####################################################################################################################

Method: Main Process Notification Method
Message: Process Ran Smoothly with no errors 
Modifications: Success Changed to true and result changed to true in given database: ID:: 94381  Notification Type: email: Notification Success:  1 
Log Date and Time: August 2 2021, 3:25:03pm
#####################################################################################################################

Method: Main Process Notification Method
Message: Process Ran Smoothly with no errors 
Modifications: Success Changed to true and result changed to true in given database: ID:: 94382  Notification Type: email: Notification Success:  1 
Log Date and Time: August 2 2021, 3:25:03pm
#####################################################################################################################

Method: Main Process Notification Method
Message: Process Ran Smoothly with no errors 
Modifications: Success Changed to true and result changed to true in given database: ID:: 94383  Notification Type: email: Notification Success:  1 
Log Date and Time: August 2 2021, 3:26:02pm
#####################################################################################################################

Method: Main Process Notification Method
Message: Process Ran Smoothly with no errors 
Modifications: Success Changed to true and result changed to true in given database: ID:: 94384  Notification Type: email: Notification Success:  1 
Log Date and Time: August 4 2021, 12:01:03am
#####################################################################################################################

Method: Main Process Notification Method
Message: Process Ran Smoothly with no errors 
Modifications: Success Changed to true and result changed to true in given database: ID:: 94385  Notification Type: email: Notification Success:  1 
Log Date and Time: August 4 2021, 12:01:03am
#####################################################################################################################

Method: Main Process Notification Method
Message: Process Ran Smoothly with no errors 
Modifications: Success Changed to true and result changed to true in given database: ID:: 94386  Notification Type: email: Notification Success:  1 
Log Date and Time: August 4 2021, 12:01:03am
#####################################################################################################################

